G75*
G70*
%OFA0B0*%
%FSLAX24Y24*%
%IPPOS*%
%LPD*%
%AMOC8*
5,1,8,0,0,1.08239X$1,22.5*
%
%ADD10R,0.0287X0.0091*%
%ADD11R,0.0268X0.0150*%
%ADD12C,0.0740*%
%ADD13C,0.0080*%
%ADD14C,0.0100*%
%ADD15C,0.0160*%
%ADD16C,0.0350*%
D10*
X001845Y000835D03*
X001845Y000993D03*
X001845Y001150D03*
X001845Y001307D03*
X001845Y001465D03*
X002455Y001465D03*
X002455Y001307D03*
X002455Y001150D03*
X002455Y000993D03*
X002455Y000835D03*
D11*
X002150Y000559D03*
X002150Y001741D03*
D12*
X002150Y004650D03*
X002150Y005650D03*
X001150Y005650D03*
X001150Y004650D03*
X003150Y004650D03*
X003150Y005650D03*
X004150Y005650D03*
X004150Y004650D03*
X005150Y004650D03*
X005150Y005650D03*
X006150Y005650D03*
X006150Y004650D03*
X007150Y004650D03*
X007150Y005650D03*
D13*
X003250Y002500D02*
X003000Y002250D01*
X003000Y001250D01*
X002743Y000993D01*
X002455Y000993D01*
X002455Y001150D02*
X002700Y001150D01*
X002850Y001300D01*
X002850Y002500D01*
X002600Y001700D02*
X002700Y001600D01*
X002700Y001350D01*
X002657Y001307D01*
X002455Y001307D01*
X002455Y001465D02*
X002455Y001495D01*
X002400Y001550D01*
X001845Y001465D02*
X001800Y001510D01*
X001845Y001307D02*
X001593Y001307D01*
X001550Y001350D01*
X001450Y001200D02*
X001400Y001250D01*
X001400Y004400D01*
X001450Y001200D02*
X001450Y001150D01*
X001845Y001150D01*
X001845Y000993D02*
X001357Y000993D01*
X002350Y000350D02*
X002450Y000450D01*
X002450Y000550D01*
X002550Y000650D01*
X002600Y000650D01*
X003150Y001200D01*
D14*
X003150Y002100D01*
X003400Y002350D01*
X005050Y002350D01*
X003650Y004400D02*
X003650Y005150D01*
X002650Y005150D02*
X002650Y004400D01*
X001700Y002950D02*
X001579Y002829D01*
X001550Y002759D02*
X001550Y001350D01*
X001800Y001510D02*
X001800Y002350D01*
X001900Y002650D01*
X001550Y002759D02*
X001552Y002779D01*
X001558Y002797D01*
X001567Y002815D01*
X001579Y002830D01*
X002200Y002450D02*
X002200Y002150D01*
X002400Y001950D01*
X002400Y001550D01*
X002600Y001700D02*
X002600Y002250D01*
X002550Y002350D01*
X002400Y002650D02*
X002200Y002450D01*
X001200Y001150D02*
X001357Y000993D01*
X001845Y000835D02*
X001845Y000405D01*
X001900Y000350D01*
X002350Y000350D01*
X004650Y005150D02*
X005650Y005150D01*
D15*
X001200Y002350D02*
X001200Y001150D01*
X001200Y002350D02*
X001100Y002450D01*
X001700Y002950D02*
X001771Y003021D01*
X001800Y003091D02*
X001800Y004500D01*
X002000Y004500D01*
X002150Y004650D01*
X002650Y004400D02*
X002650Y002941D01*
X002621Y002871D02*
X002400Y002650D01*
X002621Y002870D02*
X002633Y002885D01*
X002642Y002903D01*
X002648Y002921D01*
X002650Y002941D01*
X002850Y002500D02*
X003621Y003271D01*
X003650Y003341D02*
X003650Y004400D01*
X004150Y004650D02*
X004650Y005150D01*
X004150Y005650D02*
X003650Y005150D01*
X003150Y005650D02*
X002150Y005650D01*
X002650Y005150D01*
X001400Y004400D02*
X001150Y004650D01*
X001800Y003091D02*
X001798Y003071D01*
X001792Y003053D01*
X001783Y003035D01*
X001771Y003020D01*
X003250Y002500D02*
X004150Y003400D01*
X004150Y003659D01*
X004179Y003729D02*
X004500Y004050D01*
X006509Y004050D01*
X006579Y004079D02*
X007150Y004650D01*
X006580Y004079D02*
X006565Y004067D01*
X006547Y004058D01*
X006529Y004052D01*
X006509Y004050D01*
X006150Y004650D02*
X005650Y005150D01*
X004179Y003730D02*
X004167Y003715D01*
X004158Y003697D01*
X004152Y003679D01*
X004150Y003659D01*
X003650Y003341D02*
X003648Y003321D01*
X003642Y003303D01*
X003633Y003285D01*
X003621Y003270D01*
X005050Y002350D02*
X005100Y002400D01*
X007450Y002400D01*
X007700Y002650D01*
D16*
X007700Y002650D03*
X002550Y002350D03*
X001900Y002650D03*
X001100Y002450D03*
M02*
