G75*
G70*
%OFA0B0*%
%FSLAX24Y24*%
%IPPOS*%
%LPD*%
%AMOC8*
5,1,8,0,0,1.08239X$1,22.5*
%
%ADD10C,0.0472*%
%ADD11C,0.0400*%
D10*
X001543Y003238D03*
X001883Y003838D03*
X002253Y003238D03*
X002593Y003838D03*
X002973Y003238D03*
X003313Y003838D03*
X003683Y003238D03*
X004023Y003838D03*
D11*
X002133Y002038D03*
M02*
