G75*
G70*
%OFA0B0*%
%FSLAX24Y24*%
%IPPOS*%
%LPD*%
%AMOC8*
5,1,8,0,0,1.08239X$1,22.5*
%
%ADD10C,0.0472*%
%ADD11R,0.0472X0.0787*%
%ADD12R,0.0236X0.0531*%
%ADD13R,0.0374X0.0472*%
%ADD14C,0.0240*%
%ADD15C,0.0160*%
%ADD16C,0.0400*%
%ADD17C,0.0090*%
%ADD18C,0.0080*%
D10*
X001543Y003238D03*
X001883Y003838D03*
X002253Y003238D03*
X002593Y003838D03*
X002973Y003238D03*
X003313Y003838D03*
X003683Y003238D03*
X004023Y003838D03*
D11*
X004685Y000742D03*
X002480Y000742D03*
D12*
X002992Y002188D03*
X003386Y002188D03*
X003780Y002188D03*
X004173Y002188D03*
D13*
X001627Y002172D03*
X000938Y002172D03*
X000938Y001305D03*
X001627Y001305D03*
D14*
X002133Y002038D02*
X002029Y002142D01*
X001958Y002172D02*
X001627Y002172D01*
X002424Y001638D02*
X003583Y001638D01*
X003783Y001838D01*
X003783Y002185D01*
X003780Y002188D02*
X003780Y003142D01*
X003683Y003238D01*
X003313Y003608D01*
X003313Y003838D01*
X004023Y003838D02*
X004283Y003578D01*
X004283Y002688D01*
X004173Y002579D01*
X004173Y002188D01*
X001883Y003838D02*
X001333Y003838D01*
X000933Y003438D01*
X000933Y003088D01*
D15*
X000933Y001292D02*
X000933Y000938D01*
X001003Y000868D01*
X001074Y000838D02*
X001833Y000838D01*
X002003Y001009D01*
X002033Y001080D02*
X002033Y001288D01*
X002353Y001609D01*
X002368Y001621D01*
X002386Y001630D01*
X002404Y001636D01*
X002424Y001638D01*
X002029Y002143D02*
X002014Y002155D01*
X001996Y002164D01*
X001978Y002170D01*
X001958Y002172D01*
X002283Y002738D02*
X002283Y003208D01*
X002253Y003238D01*
X002640Y002789D02*
X002700Y002728D01*
X002773Y002728D01*
X002783Y002738D02*
X003283Y002738D01*
X003383Y002638D01*
X003383Y002192D01*
X003386Y002188D01*
X003780Y002188D02*
X003783Y002185D01*
X004173Y002188D02*
X004183Y002179D01*
X002992Y002188D02*
X002833Y002188D01*
X002283Y002738D01*
X001333Y001738D02*
X000674Y001738D01*
X000603Y001768D02*
X000533Y001838D01*
X000533Y002638D01*
X000903Y003009D01*
X000933Y003080D02*
X000933Y003088D01*
X000933Y003080D02*
X000931Y003060D01*
X000925Y003042D01*
X000916Y003024D01*
X000904Y003009D01*
X000603Y001767D02*
X000618Y001755D01*
X000636Y001746D01*
X000654Y001740D01*
X000674Y001738D01*
X000938Y001305D02*
X000933Y001299D01*
X000932Y001292D01*
X001003Y000867D02*
X001018Y000855D01*
X001036Y000846D01*
X001054Y000840D01*
X001074Y000838D01*
X001627Y001403D02*
X001625Y001423D01*
X001619Y001441D01*
X001610Y001459D01*
X001598Y001474D01*
X001598Y001473D02*
X001333Y001738D01*
X001627Y001403D02*
X001627Y001305D01*
X002033Y001080D02*
X002031Y001060D01*
X002025Y001042D01*
X002016Y001024D01*
X002004Y001009D01*
D16*
X002133Y002038D03*
D17*
X002643Y002728D02*
X002640Y002789D01*
X002593Y003838D01*
D18*
X002783Y002738D02*
X002773Y002728D01*
M02*
