G75*
G70*
%OFA0B0*%
%FSLAX24Y24*%
%IPPOS*%
%LPD*%
%AMOC8*
5,1,8,0,0,1.08239X$1,22.5*
%
%ADD10C,0.1380*%
%ADD11R,0.0710X0.0631*%
%ADD12R,0.0867X0.0552*%
%ADD13R,0.0611X0.0316*%
%ADD14R,0.0474X0.0513*%
%ADD15C,0.0434*%
%ADD16R,0.1080X0.1080*%
%ADD17C,0.1080*%
%ADD18R,0.0513X0.0474*%
%ADD19R,0.0789X0.0631*%
%ADD20R,0.0631X0.0828*%
%ADD21R,0.0395X0.0671*%
%ADD22R,0.0237X0.0434*%
%ADD23C,0.0820*%
%ADD24R,0.0631X0.0710*%
%ADD25R,0.0552X0.0867*%
%ADD26R,0.0316X0.0611*%
%ADD27C,0.0430*%
%ADD28C,0.0830*%
%ADD29C,0.0556*%
D10*
X003101Y001527D03*
X003101Y014527D03*
X021101Y014527D03*
X021101Y001527D03*
D11*
X007601Y001176D03*
X007601Y002279D03*
D12*
X002704Y002925D03*
X002704Y005130D03*
X002704Y006425D03*
X002704Y008630D03*
X002704Y009825D03*
X002704Y012030D03*
D13*
X004151Y011518D03*
X004151Y011124D03*
X004151Y010731D03*
X004151Y010337D03*
X004151Y008118D03*
X004151Y007724D03*
X004151Y007331D03*
X004151Y006937D03*
X004151Y004618D03*
X004151Y004224D03*
X004151Y003831D03*
X004151Y003437D03*
D14*
X006251Y001812D03*
X006751Y001812D03*
X006751Y001143D03*
X006251Y001143D03*
X008601Y001193D03*
X009101Y001193D03*
X009101Y001862D03*
X008601Y001862D03*
X012601Y002693D03*
X013101Y002893D03*
X013601Y003193D03*
X013101Y003562D03*
X012601Y003362D03*
X013601Y003862D03*
X014101Y003993D03*
X014601Y003993D03*
X015101Y003993D03*
X015101Y004662D03*
X014601Y004662D03*
X014101Y004662D03*
X013601Y004393D03*
X013601Y005062D03*
X016101Y004912D03*
X016601Y004862D03*
X017101Y004862D03*
X017601Y004862D03*
X017601Y004193D03*
X017101Y004193D03*
X016601Y004193D03*
X016101Y004243D03*
X018601Y004193D03*
X019101Y004193D03*
X019601Y004512D03*
X019101Y004862D03*
X018601Y004862D03*
X019601Y003843D03*
X020101Y004012D03*
X020101Y003343D03*
X020001Y002162D03*
X020001Y001493D03*
X018351Y010593D03*
X017851Y010593D03*
X017101Y010593D03*
X016601Y010593D03*
X016101Y010593D03*
X015601Y010593D03*
X015101Y010593D03*
X014601Y010593D03*
X014101Y010593D03*
X013601Y010693D03*
X013101Y010693D03*
X012601Y010693D03*
X012601Y011362D03*
X013101Y011362D03*
X013601Y011362D03*
X014101Y011262D03*
X014601Y011262D03*
X015101Y011262D03*
X015601Y011262D03*
X016101Y011262D03*
X016601Y011262D03*
X017101Y011262D03*
X017851Y011262D03*
X018351Y011262D03*
X019251Y011362D03*
X019751Y011362D03*
X020251Y011362D03*
X020251Y010693D03*
X019751Y010693D03*
X019251Y010693D03*
X019151Y012493D03*
X019151Y013162D03*
X018401Y014443D03*
X018401Y015112D03*
D15*
X014091Y001227D03*
X012910Y001227D03*
D16*
X011151Y001177D03*
X009951Y001177D03*
D17*
X009951Y002477D03*
X011151Y002477D03*
D18*
X008985Y003077D03*
X008316Y003077D03*
X007435Y003627D03*
X006766Y003627D03*
X006835Y002377D03*
X006166Y002377D03*
X012266Y004927D03*
X012266Y005427D03*
X012935Y005427D03*
X012935Y004927D03*
X017916Y009327D03*
X018585Y009327D03*
X018966Y008777D03*
X019635Y008777D03*
X020266Y009027D03*
X020266Y009527D03*
X020935Y009527D03*
X020935Y009027D03*
X020935Y008027D03*
X020935Y007527D03*
X020935Y007027D03*
X020935Y006527D03*
X020266Y006527D03*
X020266Y007027D03*
X020266Y007527D03*
X020266Y008027D03*
X020766Y010877D03*
X021435Y010877D03*
X020935Y005027D03*
X020935Y004527D03*
X020266Y004527D03*
X020266Y005027D03*
X020766Y003077D03*
X021435Y003077D03*
X019585Y002927D03*
X018916Y002927D03*
X005035Y011977D03*
X004366Y011977D03*
X004085Y009477D03*
X003416Y009477D03*
D19*
X005708Y009385D03*
X007952Y009385D03*
D20*
X005078Y014562D03*
X010255Y014956D03*
D21*
X008420Y013440D03*
X007987Y013282D03*
X007554Y013440D03*
X007121Y013519D03*
X006688Y013440D03*
X006255Y013519D03*
X005822Y013440D03*
X005389Y013440D03*
D22*
X018795Y013644D03*
X019051Y013644D03*
X019307Y013644D03*
X019307Y014510D03*
X019051Y014510D03*
X018795Y014510D03*
X019095Y002260D03*
X019351Y002260D03*
X019607Y002260D03*
X019607Y001394D03*
X019351Y001394D03*
X019095Y001394D03*
D23*
X017601Y014027D03*
X017601Y015027D03*
X016601Y015027D03*
X015601Y015027D03*
X015601Y014027D03*
X016601Y014027D03*
X014601Y014027D03*
X013601Y014027D03*
X012601Y014027D03*
X012601Y015027D03*
X013601Y015027D03*
X014601Y015027D03*
X011601Y015027D03*
X011601Y014027D03*
D24*
X007652Y004377D03*
X006549Y004377D03*
D25*
X013498Y001181D03*
X015703Y001181D03*
X016448Y001081D03*
X018653Y001081D03*
D26*
X018141Y002527D03*
X017747Y002527D03*
X017354Y002527D03*
X016960Y002527D03*
X015191Y002627D03*
X014797Y002627D03*
X014404Y002627D03*
X014010Y002627D03*
D27*
X013351Y001977D03*
X013051Y002327D03*
X012101Y002527D03*
X012951Y004027D03*
X013151Y004477D03*
X014251Y003527D03*
X014701Y003527D03*
X015151Y003527D03*
X015551Y003727D03*
X016301Y003727D03*
X017751Y003427D03*
X018101Y003977D03*
X018151Y004427D03*
X018051Y004877D03*
X019101Y005877D03*
X019651Y005477D03*
X019751Y005027D03*
X021401Y004777D03*
X021401Y004327D03*
X021751Y003977D03*
X021351Y003527D03*
X021801Y003477D03*
X021501Y002627D03*
X020451Y002427D03*
X019601Y003377D03*
X018501Y002277D03*
X018001Y001927D03*
X017701Y001577D03*
X017351Y001227D03*
X017951Y001077D03*
X019151Y000827D03*
X019651Y000827D03*
X020351Y000877D03*
X015101Y005127D03*
X014601Y005127D03*
X014601Y006027D03*
X015601Y006027D03*
X016101Y006527D03*
X016601Y006027D03*
X017101Y006527D03*
X017601Y006027D03*
X018851Y006627D03*
X019751Y006527D03*
X019801Y007527D03*
X018851Y007677D03*
X018301Y007427D03*
X017601Y007027D03*
X017101Y007527D03*
X017601Y008027D03*
X016601Y008027D03*
X016101Y007527D03*
X016601Y007027D03*
X015601Y007027D03*
X015101Y007527D03*
X015601Y008027D03*
X014601Y008027D03*
X013701Y007327D03*
X013301Y006827D03*
X012951Y007127D03*
X012951Y007727D03*
X013451Y007927D03*
X014601Y007027D03*
X013401Y006327D03*
X012951Y006477D03*
X011751Y007477D03*
X011501Y007127D03*
X010001Y008427D03*
X010801Y008727D03*
X011501Y009827D03*
X010801Y010627D03*
X011801Y011077D03*
X011801Y011677D03*
X012651Y012577D03*
X012151Y012777D03*
X013101Y013327D03*
X013151Y011827D03*
X013851Y011827D03*
X014451Y011827D03*
X014951Y011777D03*
X015401Y011777D03*
X016401Y011777D03*
X016851Y011777D03*
X016101Y012727D03*
X015506Y012733D03*
X018301Y013427D03*
X018451Y013877D03*
X019651Y013627D03*
X018701Y012927D03*
X018701Y012377D03*
X018351Y011777D03*
X019201Y011827D03*
X019651Y011827D03*
X020801Y011327D03*
X021601Y011527D03*
X021401Y013377D03*
X021701Y013677D03*
X019651Y015027D03*
X019251Y015177D03*
X018851Y014927D03*
X019101Y010227D03*
X019801Y009527D03*
X020101Y008577D03*
X021451Y009277D03*
X021501Y007827D03*
X021501Y007227D03*
X021751Y005527D03*
X017401Y009077D03*
X016801Y009077D03*
X016201Y009077D03*
X016101Y010127D03*
X015101Y010127D03*
X014101Y010127D03*
X012951Y010127D03*
X012935Y009327D03*
X010101Y011477D03*
X009151Y010677D03*
X008601Y010527D03*
X008401Y011327D03*
X007751Y011177D03*
X007401Y010927D03*
X006701Y009777D03*
X005601Y009927D03*
X004601Y009527D03*
X004601Y008627D03*
X004701Y007627D03*
X005601Y007527D03*
X005651Y007027D03*
X005051Y006527D03*
X003451Y006477D03*
X003301Y007077D03*
X003601Y004827D03*
X002801Y003827D03*
X004601Y002527D03*
X005101Y002027D03*
X005601Y002527D03*
X006101Y003027D03*
X005101Y003027D03*
X004601Y001527D03*
X005101Y001027D03*
X008151Y001977D03*
X009001Y002327D03*
X010301Y004027D03*
X011551Y004927D03*
X011751Y005427D03*
X009651Y005827D03*
X009351Y005527D03*
X007851Y006477D03*
X007501Y007177D03*
X008451Y007727D03*
X009001Y007427D03*
X009601Y007227D03*
X008351Y008827D03*
X007451Y012427D03*
X006101Y012527D03*
X005601Y012527D03*
X003801Y012727D03*
X003451Y011527D03*
X003451Y010577D03*
X007851Y013927D03*
X008401Y013977D03*
X008901Y013327D03*
X010001Y014077D03*
X009551Y014527D03*
X010251Y012627D03*
X006851Y014077D03*
X004501Y014727D03*
X016101Y005427D03*
X014801Y002077D03*
X014601Y001227D03*
X017101Y010127D03*
X017601Y010127D03*
X018101Y010127D03*
D28*
X015101Y006527D03*
D29*
X006901Y002977D03*
M02*
